…
  mutate(my_model  = map(train, ~lm(bwt ~ delwt + mheight + momage + smoken, data = .x)),
         model1  = map(train, ~lm(bwt ~ blength + gaweeks, data = .x)),
         model2  = map(train, ~lm(bwt ~ bhead * blength * babysex, data = .x))) %>% 
  
  mutate(rmse_my_model = map2_dbl(my_model, test, ~rmse(model = .x, data = .y)),
         rmse_model1 = map2_dbl(model1 , test, ~rmse(model = .x, data = .y)),
         rmse_model2 = map2_dbl(model2, test, ~rmse(model = .x, data = .y))) 
cv_df
## # A tibble: 500 x 9
##    train test  .id   my_model model1 model2 rmse_my_model rmse_model1
##    <lis> <lis> <chr> <list>   <list> <list>         <dbl>       <dbl>
##  1 <tib~ <tib~ 001   <lm>     <lm>   <lm>            491.        330.
##  2 <tib~ <tib~ 002   <lm>     <lm>   <lm>            477.        327.
##  3 <tib~ <tib~ 003   <lm>     <lm>   <lm>            505.        336.
##  4 <tib~ <tib~ 004   <lm>     <lm>   <lm>            480.        339.
##  5 <tib~ <tib~ 005   <lm>     <lm>   <lm>            489.        320.
##  6 <tib~ <tib~ 006   <lm>     <lm>   <lm>            489.        359.
##  7 <tib~ <tib~ 007   <lm>     <lm>   <lm>            490.        363.
##  8 <tib~ <tib~ 008   <lm>     <lm>   <lm>            472.        320.
##  9 <tib~ <tib~ 009   <lm>     <lm>   <lm>            470.        348.
## 10 <tib~ <tib~ 010   <lm>     <lm>   <lm>            488.        339.
## # ... with 490 more rows, and 1 more variable: rmse_model2 <dbl>
```

``` r
#select interested variables 
rmse_df = cv_df %>% 
select(starts_with("rmse")) %>% 
  pivot_longer(
    everything(),
    names_to = "model", 
    values_to = "rmse",
    names_prefix = "rmse_") %>%   mutate(
    model = fct_reorder(model,rmse))
rmse_df
## # A tibble: 1,500 x 2
##    model     rmse
##    <fct>    <dbl>
##  1 my_model  491.
##  2 model1    330.
##  3 model2    297.
##  4 my_model  477.
##  5 model1    327.
##  6 model2    291.
##  7 my_model  505.
##  8 model1    336.
##  9 model2    298.
## 10 my_model  480.
## # ... with 1,490 more rows
```
…
  weather_df %>%
  bootstrap(n = 5000) %>%
  mutate(
    models = map(.x = strap, ~lm(tmax ~ tmin, data = .x)),
    results = map(models, broom::glance),
    results2 = map(models, broom::tidy)) %>% 
  select(-strap, -models) %>% 
  unnest(results, results2) %>% 
  select(.id, term, r.squared,estimate) %>% 
  mutate(
    term = str_replace(term, "\\(", ""),
    term = str_replace(term, "\\)", "")
  )
bootstrap_weather
## # A tibble: 10,000 x 4
##    .id   term      r.squared estimate
##    <chr> <chr>         <dbl>    <dbl>
##  1 0001  Intercept     0.911     7.13
##  2 0001  tmin          0.911     1.05
##  3 0002  Intercept     0.920     7.66
##  4 0002  tmin          0.920     1.01
##  5 0003  Intercept     0.927     6.87
##  6 0003  tmin          0.927     1.06
##  7 0004  Intercept     0.908     7.31
##  8 0004  tmin          0.908     1.04
##  9 0005  Intercept     0.926     7.44
## 10 0005  tmin          0.926     1.03
## # ... with 9,990 more rows
```

``` r
bootstrap_weather2 = bootstrap_weather %>% 
  pivot_wider(
    names_from = term,
    values_from = estimate
  ) %>%
  mutate(log = log(tmin * Intercept, base = exp(1))) %>%
  select(r.squared, log)

bootstrap_weather2
## # A tibble: 5,000 x 2
##    r.squared   log
##        <dbl> <dbl>
##  1     0.911  2.01
##  2     0.920  2.05
##  3     0.927  1.99
##  4     0.908  2.03
##  5     0.926  2.03
##  6     0.908  1.99
##  7     0.907  2.00
##  8     0.906  2.01
##  9     0.926  2.01
## 10     0.909  2.01
## # ... with 4,990 more rows
```
…
